{
    "method": "call",
    "id": "86eaa4436da6978e8bb1614578627685",
    "dateTime": "2021-03-01T21:00:00.000Z",
    "remoteAddress": "3122265485",
    "existReson": "Early Disconnect",
    "callBeginDateTime": "2021-03-01T21:00:00.000Z", //New  Done
    "readingTimeEntered": "2021-03-01T21:00:00.000Z", //New
    "readings": [
        {
            "station": "74",
            "number": "2",
            "type": "type",
            "maxFill": "500",
            "reading": "400"
        },
        {
            "station": "74",
            "number": "6",
            "type": "type",
            "maxFill": "500",
            "reading": "401"
        },
        {
            "station": "74",
            "number": "6",
            "type": "type",
            "maxFill": "500",
            "reading": "402"
        }
    ],
    "fileData": {
        "Customer Name": "Zach's Cool Gas Station", //New
        "Forcast System": "Zach's Cool Forcast System", //New
        "Forcast System ID": "1234567", //New
        "Call Group ID": "Call Group", //New
        "Saturday Phone Number": "3122265485",
        "Saturday Time to Call 1": "05:15",
        "Saturday Time to Call 2": "15:00",
        "Station Name": "Tonys Mobil",
        "Station Status": "Active",
        "Sunday Phone Number": "3122265485",
        "Sunday Time to Call 1": "06:00",
        "Sunday Time to Call 2": "15:00",
        "id": "8c5ee981d9b7f774fc11595649748211",
        "lastUpdatedDate": "2020-07-29T17:54:43.436Z",
        "lastUpdatedUser": "Ryan  Johnson",
        "Station Group": "McMahon Transport",
        "Phone Number": "3122265485",
        "Time to Call 1": "3/1/2021, 5:15:00 AM",
        "Time to Call 2": "3/1/2021, 3:00:00 PM",
        "stationID": "362",
        "preferredLanguage": "English",
        "offerLanguage": false,
        "requestTransfer": false,
        "play800Prompt": false,
        "readingTimeRequired": false,
        "tankData": [
            {
                "number": 1,
                "type": "No Lead",
                "maxFill": "20000"
            },
            {
                "number": 2,
                "type": "Premium",
                "maxFill": "12000"
            },
            {
                "number": 3,
                "type": "Bio Diesel",
                "maxFill": "12000"
            }
        ]
    },
    "template": "968e227c25991e14d471595508699688"
}